output/dump.vcd
$version Generated by VerilatedVcd $end
$timescale 1ps $end
 $scope module $rootio $end
  $var wire 16 T b [15:0] $end
  $var wire 32 U readData [31:0] $end
  $var wire 7 V wb [6:0] $end
  $var wire 32 W outAddr [31:0] $end
  $var wire 32 X resultALU [31:0] $end
 $upscope $end
 $scope module testBench $end
  $var wire 1 Y clk $end
  $var wire 1 Z reset_n $end
  $var wire 1 [ hit_reset $end
  $var wire 16 f a [15:0] $end
  $var wire 16 T b [15:0] $end
  $var wire 16 g c_o [15:0] $end
  $var wire 16 h c_i [15:0] $end
  $var wire 1 \ PCSrc $end
  $var wire 32 ] inAddr [31:0] $end
  $var wire 32 I instruction [31:0] $end
  $var wire 32 J immediate [31:0] $end
  $var wire 32 P regData1 [31:0] $end
  $var wire 32 Q regData2 [31:0] $end
  $var wire 1 R zero $end
  $var wire 32 U readData [31:0] $end
  $var wire 32 ^ wrData [31:0] $end
  $var wire 13 K ex [12:0] $end
  $var wire 3 _ mem [2:0] $end
  $var wire 7 V wb [6:0] $end
  $var wire 32 W outAddr [31:0] $end
  $var wire 32 X resultALU [31:0] $end
  $var wire 1 D clk_if $end
  $var wire 1 E clk_id $end
  $var wire 1 F clk_mem $end
  $scope module CLK_GEN $end
   $var wire 1 Y i_clk $end
   $var wire 1 Z i_reset_n $end
   $var wire 1 D o_clk_if $end
   $var wire 1 E o_clk_id $end
   $var wire 1 F o_clk_mem $end
   $var wire 16 G w_clkData_out [15:0] $end
   $var wire 16 H w_clkData_in [15:0] $end
   $scope module clkDivider_if $end
    $var wire 1 Y clk $end
    $var wire 1 Z reset_n $end
    $var wire 16 H d [15:0] $end
    $var wire 16 G q [15:0] $end
   $upscope $end
  $upscope $end
  $scope module EX $end
   $var wire 32 ] i_inAddr [31:0] $end
   $var wire 32 P i_regData1 [31:0] $end
   $var wire 32 Q i_regData2 [31:0] $end
   $var wire 32 J i_immediate [31:0] $end
   $var wire 13 K i_ctrlEX [12:0] $end
   $var wire 32 W o_outAddr [31:0] $end
   $var wire 1 R o_zero $end
   $var wire 32 X o_resultALU [31:0] $end
   $var wire 32 P w_A [31:0] $end
   $var wire 32 S w_B [31:0] $end
   $var wire 32 L w_addrOffset [31:0] $end
   $scope module ALU $end
    $var wire 32 P i_A [31:0] $end
    $var wire 32 S i_B [31:0] $end
    $var wire 12 M i_ctrlALU [11:0] $end
    $var wire 32 X o_result [31:0] $end
    $var wire 1 R o_zero $end
   $upscope $end
  $upscope $end
  $scope module ID $end
   $var wire 1 E i_clk $end
   $var wire 1 Z i_reset_n $end
   $var wire 32 I i_instr [31:0] $end
   $var wire 1 ` i_wrSig $end
   $var wire 5 a i_wrReg [4:0] $end
   $var wire 32 ^ i_wrData [31:0] $end
   $var wire 32 P o_rdData1 [31:0] $end
   $var wire 32 Q o_rdData2 [31:0] $end
   $var wire 32 J o_immediate [31:0] $end
   $var wire 13 K o_ctrlEX [12:0] $end
   $var wire 3 _ o_ctrlMEM [2:0] $end
   $var wire 7 V o_ctrlWB [6:0] $end
   $var wire 5 N w_rdReg1 [4:0] $end
   $var wire 5 O w_rdReg2 [4:0] $end
   $scope module Ctrl $end
    $var wire 32 I i_instr [31:0] $end
    $var wire 5 N o_rdReg1 [4:0] $end
    $var wire 5 O o_rdReg2 [4:0] $end
    $var wire 13 K o_ctrlEX [12:0] $end
    $var wire 3 _ o_ctrlMEM [2:0] $end
    $var wire 7 V o_ctrlWB [6:0] $end
   $upscope $end
   $scope module ImmGen $end
    $var wire 32 I i_instr [31:0] $end
    $var wire 32 J o_imm [31:0] $end
   $upscope $end
   $scope module Reg $end
    $var wire 1 E i_clk $end
    $var wire 1 Z i_reset_n $end
    $var wire 5 N i_rdReg1 [4:0] $end
    $var wire 5 O i_rdReg2 [4:0] $end
    $var wire 1 ` i_wrSig $end
    $var wire 5 a i_wrReg [4:0] $end
    $var wire 32 ^ i_wrData [31:0] $end
    $var wire 32 P o_rdData1 [31:0] $end
    $var wire 32 Q o_rdData2 [31:0] $end
    $var wire 32 # regs[0] [31:0] $end
    $var wire 32 $ regs[1] [31:0] $end
    $var wire 32 % regs[2] [31:0] $end
    $var wire 32 & regs[3] [31:0] $end
    $var wire 32 ' regs[4] [31:0] $end
    $var wire 32 ( regs[5] [31:0] $end
    $var wire 32 ) regs[6] [31:0] $end
    $var wire 32 * regs[7] [31:0] $end
    $var wire 32 + regs[8] [31:0] $end
    $var wire 32 , regs[9] [31:0] $end
    $var wire 32 - regs[10] [31:0] $end
    $var wire 32 . regs[11] [31:0] $end
    $var wire 32 / regs[12] [31:0] $end
    $var wire 32 0 regs[13] [31:0] $end
    $var wire 32 1 regs[14] [31:0] $end
    $var wire 32 2 regs[15] [31:0] $end
    $var wire 32 3 regs[16] [31:0] $end
    $var wire 32 4 regs[17] [31:0] $end
    $var wire 32 5 regs[18] [31:0] $end
    $var wire 32 6 regs[19] [31:0] $end
    $var wire 32 7 regs[20] [31:0] $end
    $var wire 32 8 regs[21] [31:0] $end
    $var wire 32 9 regs[22] [31:0] $end
    $var wire 32 : regs[23] [31:0] $end
    $var wire 32 ; regs[24] [31:0] $end
    $var wire 32 < regs[25] [31:0] $end
    $var wire 32 = regs[26] [31:0] $end
    $var wire 32 > regs[27] [31:0] $end
    $var wire 32 ? regs[28] [31:0] $end
    $var wire 32 @ regs[29] [31:0] $end
    $var wire 32 A regs[30] [31:0] $end
    $var wire 32 B regs[31] [31:0] $end
    $scope module unnamedblk1 $end
     $var wire 32 C i [31:0] $end
    $upscope $end
   $upscope $end
  $upscope $end
  $scope module IF $end
   $var wire 1 D i_clk $end
   $var wire 1 Z i_reset_n $end
   $var wire 1 \ i_PCSrc $end
   $var wire 32 W i_inAddr [31:0] $end
   $var wire 32 ] o_outAddr [31:0] $end
   $var wire 32 I o_instruction [31:0] $end
   $var wire 32 b PCin [31:0] $end
   $var wire 32 ] PCout [31:0] $end
   $scope module IM $end
    $var wire 1 D i_clk $end
    $var wire 32 ] i_addr [31:0] $end
    $var wire 32 I o_instr [31:0] $end
   $upscope $end
   $scope module PC $end
    $var wire 1 D clk $end
    $var wire 1 Z reset_n $end
    $var wire 32 b d [31:0] $end
    $var wire 32 ] q [31:0] $end
   $upscope $end
  $upscope $end
  $scope module MEM $end
   $var wire 1 F i_clk $end
   $var wire 1 Z i_reset_n $end
   $var wire 32 X i_memAddr [31:0] $end
   $var wire 32 Q i_wrData [31:0] $end
   $var wire 3 _ i_ctrlMEM [2:0] $end
   $var wire 1 R i_zero $end
   $var wire 32 U o_readData [31:0] $end
   $var wire 1 \ o_PCSrc $end
   $scope module Memory $end
    $var wire 1 F i_clk $end
    $var wire 1 Z i_reset_n $end
    $var wire 32 X i_memAddr [31:0] $end
    $var wire 32 Q i_writeData [31:0] $end
    $var wire 2 c i_ctrlMEM [1:0] $end
    $var wire 32 U o_readData [31:0] $end
    $scope module unnamedblk1 $end
     $var wire 32 d i [31:0] $end
    $upscope $end
   $upscope $end
  $upscope $end
  $scope module WB $end
   $var wire 1 e i_ctrlWB $end
   $var wire 32 U i_readData [31:0] $end
   $var wire 32 X i_resultALU [31:0] $end
   $var wire 32 ^ o_wrData [31:0] $end
  $upscope $end
 $upscope $end
$enddefinitions $end


#0
b00000000000000000000000000000000 #
b00000000000000000000000000000000 $
b00000000000000000000000000000000 %
b00000000000000000000000000000000 &
b00000000000000000000000000000000 '
b00000000000000000000000000000000 (
b00000000000000000000000000000000 )
b00000000000000000000000000000000 *
b00000000000000000000000000000000 +
b00000000000000000000000000000000 ,
b00000000000000000000000000000000 -
b00000000000000000000000000000000 .
b00000000000000000000000000000000 /
b00000000000000000000000000000000 0
b00000000000000000000000000000000 1
b00000000000000000000000000000000 2
b00000000000000000000000000000000 3
b00000000000000000000000000000000 4
b00000000000000000000000000000000 5
b00000000000000000000000000000000 6
b00000000000000000000000000000000 7
b00000000000000000000000000000000 8
b00000000000000000000000000000000 9
b00000000000000000000000000000000 :
b00000000000000000000000000000000 ;
b00000000000000000000000000000000 <
b00000000000000000000000000000000 =
b00000000000000000000000000000000 >
b00000000000000000000000000000000 ?
b00000000000000000000000000000000 @
b00000000000000000000000000000000 A
b00000000000000000000000000000000 B
b00000000000000000000000000100000 C
1D
1E
1F
b0000000000000000 G
b0000000000000001 H
b00000000000000000000000000000000 I
b00000000000000000000000000000000 J
b1000000000000 K
b00000000000000000000000000000000 L
b100000000000 M
b00000 N
b00000 O
b00000000000000000000000000000000 P
b00000000000000000000000000000000 Q
1R
b00000000000000000000000000000000 S
b0000000000000000 T
b00000000000000000000000000000000 U
b0000000 V
b00000000000000000000000000000000 W
b00000000000000000000000000000000 X
0Y
0Z
0[
0\
b00000000000000000000000000000000 ]
b00000000000000000000000000000000 ^
b000 _
0`
b00000 a
b00000000000000000000000000000100 b
b00 c
b00000000000000000000000100000000 d
0e
b0000000000000000 f
b0000000000000000 g
b0000000000000000 h
#5
1Y
1Z
#10
0Y
#15
0D
b0000000000000001 G
b0000000000000010 H
b00000000000100001000000010010011 I
b00000000000000000000000000000001 J
b1010000000000 K
b00000000000000000000000000000001 L
b00001 N
0R
b00000000000000000000000000000001 S
b1000000010010011 T
b1000001 V
b00000000000000000000000000000001 W
b00000000000000000000000000000001 X
1Y
b00000000000000000000000000000001 ^
1`
b00001 a
#20
0Y
#25
0E
b0000000000000010 G
b0000000000000011 H
1Y
#30
0Y
#35
0F
b0000000000000011 G
b0000000000000100 H
1Y
#40
0Y
#45
b0000000000000100 G
b0000000000000000 H
1Y
#50
0Y
#55
b00000000000000000000000000000001 $
1D
1E
1F
b0000000000000000 G
b0000000000000001 H
b00000000000000000000000000000001 P
b00000000000000000000000000000101 W
b00000000000000000000000000000010 X
1Y
b00000000000000000000000000000100 ]
b00000000000000000000000000000010 ^
b00000000000000000000000000001000 b
#60
0Y
#65
0D
b0000000000000001 G
b0000000000000010 H
b00000000000100010000000100010011 I
b00010 N
b00000000000000000000000000000000 P
b0000000100010011 T
b1000010 V
b00000000000000000000000000000001 X
1Y
b00000000000000000000000000000001 ^
b00010 a
#70
0Y
#75
0E
b0000000000000010 G
b0000000000000011 H
1Y
#80
0Y
#85
0F
b0000000000000011 G
b0000000000000100 H
1Y
#90
0Y
#95
b0000000000000100 G
b0000000000000000 H
1Y
#100
0Y
#105
b00000000000000000000000000000001 %
1D
1E
1F
b0000000000000000 G
b0000000000000001 H
b00000000000000000000000000000001 P
b00000000000000000000000000001001 W
b00000000000000000000000000000010 X
1Y
b00000000000000000000000000001000 ]
b00000000000000000000000000000010 ^
b00000000000000000000000000001100 b
#110
0Y
#115
0D
b0000000000000001 G
b0000000000000010 H
b00000011010101000000010000010011 I
b00000000000000000000000000110101 J
b00000000000000000000000000110101 L
b01000 N
b00000000000000000000000000000000 P
b00000000000000000000000000110101 S
b0000011101110111 T
b1001000 V
b00000000000000000000000000111101 W
b00000000000000000000000000110101 X
1Y
b00000000000000000000000000110101 ^
b01000 a
#120
0Y
#125
0E
b0000000000000010 G
b0000000000000011 H
1Y
#130
0Y
#135
0F
b0000000000000011 G
b0000000000000100 H
1Y
#140
0Y
#145
b0000000000000100 G
b0000000000000000 H
1Y
#150
0Y
#155
b00000000000000000000000000110101 +
1D
1E
1F
b0000000000000000 G
b0000000000000001 H
b00000000000000000000000000110101 P
b00000000000000000000000001000001 W
b00000000000000000000000001101010 X
1Y
b00000000000000000000000000001100 ]
b00000000000000000000000001101010 ^
b00000000000000000000000000010000 b
#160
0Y
#165
0D
b0000000000000001 G
b0000000000000010 H
b00000001101100111000001110010011 I
b00000000000000000000000000011011 J
b00000000000000000000000000011011 L
b00111 N
b00000000000000000000000000000000 P
b00000000000000000000000000011011 S
b1000001110111011 T
b1000111 V
b00000000000000000000000000100111 W
b00000000000000000000000000011011 X
1Y
b00000000000000000000000000011011 ^
b00111 a
#170
0Y
#175
0E
b0000000000000010 G
b0000000000000011 H
1Y
#180
0Y
#185
0F
b0000000000000011 G
b0000000000000100 H
1Y
#190
0Y
#195
b0000000000000100 G
b0000000000000000 H
1Y
#200
0Y
#205
b00000000000000000000000000011011 *
1D
1E
1F
b0000000000000000 G
b0000000000000001 H
b00000000000000000000000000011011 P
b00000000000000000000000000101011 W
b00000000000000000000000000110110 X
1Y
b00000000000000000000000000010000 ]
b00000000000000000000000000110110 ^
b00000000000000000000000000010100 b
#210
0Y
#215
0D
b0000000000000001 G
b0000000000000010 H
b00000000100100111000001110110011 I
b00000000000000000000000000000000 J
b1000000000000 K
b00000000000000000000000000000000 L
b01001 O
b00000000000000000000000000000000 S
b1000001110110011 T
b00000000000000000000000000010000 W
b00000000000000000000000000011011 X
1Y
b00000000000000000000000000011011 ^
#220
0Y
#225
0E
b0000000000000010 G
b0000000000000011 H
1Y
#230
0Y
#235
0F
b0000000000000011 G
b0000000000000100 H
1Y
#240
0Y
#245
b0000000000000100 G
b0000000000000000 H
1Y
#250
0Y
#255
1D
1E
1F
b0000000000000000 G
b0000000000000001 H
b00000000000000000000000000010100 W
1Y
b00000000000000000000000000010100 ]
b00000000000000000000000000011000 b
#260
0Y
#265
0D
b0000000000000001 G
b0000000000000010 H
b00000000011101000000010010110011 I
b01000 N
b00111 O
b00000000000000000000000000110101 P
b00000000000000000000000000011011 Q
b00000000000000000000000000011011 S
b0000010011110111 T
b1001001 V
b00000000000000000000000001010000 X
1Y
b00000000000000000000000001010000 ^
b01001 a
#270
0Y
#275
0E
b0000000000000010 G
b0000000000000011 H
1Y
#280
0Y
#285
0F
b0000000000000011 G
b0000000000000100 H
1Y
#290
0Y
#295
b0000000000000100 G
b0000000000000000 H
1Y
#300
0Y
#305
b00000000000000000000000001010000 ,
1D
1E
1F
b0000000000000000 G
b0000000000000001 H
b00000000000000000000000000011000 W
1Y
b00000000000000000000000000011000 ]
b00000000000000000000000000011100 b
#310
0Y
#315
0D
b0000000000000001 G
b0000000000000010 H
b01000000100001001000010010110011 I
b1000000100000 K
b100000100000 M
b01001 N
b01000 O
b00000000000000000000000001010000 P
b00000000000000000000000000110101 Q
b00000000000000000000000000110101 S
b1100010010110111 T
b00000000000000000000000000011011 X
1Y
b00000000000000000000000000011011 ^
#320
0Y
#325
0E
b0000000000000010 G
b0000000000000011 H
1Y
#330
0Y
#335
0F
b0000000000000011 G
b0000000000000100 H
1Y
#340
0Y
#345
b0000000000000100 G
b0000000000000000 H
1Y
#350
0Y
#355
b00000000000000000000000000011011 ,
1D
1E
1F
b0000000000000000 G
b0000000000000001 H
b00000000000000000000000000011011 P
b00000000000000000000000000011100 W
b11111111111111111111111111100110 X
1Y
b00000000000000000000000000011100 ]
b11111111111111111111111111100110 ^
b00000000000000000000000000100000 b
#360
0Y
#365
0D
b0000000000000001 G
b0000000000000010 H
b00000000001001001001010010110011 I
b1000010000000 K
b100010000000 M
b00010 O
b00000000000000000000000000000001 Q
b00000000000000000000000000000001 S
b1001010010110111 T
b00000000000000000000000000110110 X
1Y
b00000000000000000000000000110110 ^
#370
0Y
#375
0E
b0000000000000010 G
b0000000000000011 H
1Y
#380
0Y
#385
0F
b0000000000000011 G
b0000000000000100 H
1Y
#390
0Y
#395
b0000000000000100 G
b0000000000000000 H
1Y
#400
0Y
#405
b00000000000000000000000000110110 ,
1D
1E
1F
b0000000000000000 G
b0000000000000001 H
b00000000000000000000000000110110 P
b00000000000000000000000000100000 W
b00000000000000000000000001101100 X
1Y
b00000000000000000000000000100000 ]
b00000000000000000000000001101100 ^
b00000000000000000000000000100100 b
#410
0Y
#415
0D
b0000000000000001 G
b0000000000000010 H
b01000000001000001000000010110011 I
b1000000100000 K
b100000100000 M
b00001 N
b00000000000000000000000000000001 P
1R
b1100000010110011 T
b1000001 V
b00000000000000000000000000000000 X
1Y
b00000000000000000000000000000000 ^
b00001 a
#420
0Y
#425
0E
b0000000000000010 G
b0000000000000011 H
1Y
#430
0Y
#435
0F
b0000000000000011 G
b0000000000000100 H
1Y
#440
0Y
#445
b0000000000000100 G
b0000000000000000 H
1Y
#450
0Y
#455
b00000000000000000000000000000000 $
1D
1E
1F
b0000000000000000 G
b0000000000000001 H
b00000000000000000000000000000000 P
0R
b00000000000000000000000000100100 W
b11111111111111111111111111111111 X
1Y
b00000000000000000000000000100100 ]
b11111111111111111111111111111111 ^
b00000000000000000000000000101000 b
#460
0Y
#465
0D
b0000000000000001 G
b0000000000000010 H
b11111110000000001000011011100011 I
b00000000000000000001111111101100 J
b0100000000000 K
b11111111111111111111111111101100 L
b010000000000 M
b00000 O
b00000000000000000000000000000000 Q
1R
b00000000000000000000000000000000 S
b1111111111101111 T
b0000000 V
b00000000000000000000000000010000 W
b00000000000000000000000000000000 X
1Y
1\
b00000000000000000000000000000000 ^
b100 _
0`
b00000 a
b00000000000000000000000000010000 b
#470
0Y
#475
0E
b0000000000000010 G
b0000000000000011 H
1Y
#480
0Y
#485
0F
b0000000000000011 G
b0000000000000100 H
1Y
#490
0Y
#495
b0000000000000100 G
b0000000000000000 H
1Y
#500
0Y
#505
1D
1E
1F
b0000000000000000 G
b0000000000000001 H
b11111111111111111111111111111100 W
1Y
b00000000000000000000000000010000 ]
b11111111111111111111111111111100 b
#510
0Y
#515
0D
b0000000000000001 G
b0000000000000010 H
b00000000100100111000001110110011 I
b00000000000000000000000000000000 J
b1000000000000 K
b00000000000000000000000000000000 L
b100000000000 M
b00111 N
b01001 O
b00000000000000000000000000011011 P
b00000000000000000000000000110110 Q
0R
b00000000000000000000000000110110 S
b1000001110110011 T
b1000111 V
b00000000000000000000000000010000 W
b00000000000000000000000001010001 X
1Y
0\
b00000000000000000000000001010001 ^
b000 _
1`
b00111 a
b00000000000000000000000000010100 b
#520
0Y
#525
0E
b0000000000000010 G
b0000000000000011 H
1Y
#530
0Y
#535
0F
b0000000000000011 G
b0000000000000100 H
1Y
#540
0Y
#545
b0000000000000100 G
b0000000000000000 H
1Y
#550
0Y
#555
b00000000000000000000000001010001 *
1D
1E
1F
b0000000000000000 G
b0000000000000001 H
b00000000000000000000000001010001 P
b00000000000000000000000000010100 W
b00000000000000000000000010000111 X
1Y
b00000000000000000000000000010100 ]
b00000000000000000000000010000111 ^
b00000000000000000000000000011000 b
#560
0Y
#565
0D
b0000000000000001 G
b0000000000000010 H
b00000000011101000000010010110011 I
b01000 N
b00111 O
b00000000000000000000000000110101 P
b00000000000000000000000001010001 Q
b00000000000000000000000001010001 S
b0000010011110111 T
b1001001 V
b00000000000000000000000010000110 X
1Y
b00000000000000000000000010000110 ^
b01001 a
#570
0Y
#575
0E
b0000000000000010 G
b0000000000000011 H
1Y
#580
0Y
#585
0F
b0000000000000011 G
b0000000000000100 H
1Y
#590
0Y
#595
b0000000000000100 G
b0000000000000000 H
1Y
#600
0Y
#605
b00000000000000000000000010000110 ,
1D
1E
1F
b0000000000000000 G
b0000000000000001 H
b00000000000000000000000000011000 W
1Y
b00000000000000000000000000011000 ]
b00000000000000000000000000011100 b
#610
0Y
#615
0D
b0000000000000001 G
b0000000000000010 H
b01000000100001001000010010110011 I
b1000000100000 K
b100000100000 M
b01001 N
b01000 O
b00000000000000000000000010000110 P
b00000000000000000000000000110101 Q
b00000000000000000000000000110101 S
b1100010010110111 T
b00000000000000000000000001010001 X
1Y
b00000000000000000000000001010001 ^
#620
0Y
#625
0E
b0000000000000010 G
b0000000000000011 H
1Y
#630
0Y
#635
0F
b0000000000000011 G
b0000000000000100 H
1Y
#640
0Y
#645
b0000000000000100 G
b0000000000000000 H
1Y
#650
0Y
#655
b00000000000000000000000001010001 ,
1D
1E
1F
b0000000000000000 G
b0000000000000001 H
b00000000000000000000000001010001 P
b00000000000000000000000000011100 W
b00000000000000000000000000011100 X
1Y
b00000000000000000000000000011100 ]
b00000000000000000000000000011100 ^
b00000000000000000000000000100000 b
#660
0Y
#665
0D
b0000000000000001 G
b0000000000000010 H
b00000000001001001001010010110011 I
b1000010000000 K
b100010000000 M
b00010 O
b00000000000000000000000000000001 Q
b00000000000000000000000000000001 S
b1001010010110111 T
b00000000000000000000000010100010 X
1Y
b00000000000000000000000010100010 ^
#670
0Y
#675
0E
b0000000000000010 G
b0000000000000011 H
1Y
#680
0Y
#685
0F
b0000000000000011 G
b0000000000000100 H
1Y
#690
0Y
#695
b0000000000000100 G
b0000000000000000 H
1Y
#700
0Y
#705
b00000000000000000000000010100010 ,
1D
1E
1F
b0000000000000000 G
b0000000000000001 H
b00000000000000000000000010100010 P
b00000000000000000000000000100000 W
b00000000000000000000000101000100 X
1Y
b00000000000000000000000000100000 ]
b00000000000000000000000101000100 ^
b00000000000000000000000000100100 b
#710
0Y
#715
0D
b0000000000000001 G
b0000000000000010 H
b01000000001000001000000010110011 I
b1000000100000 K
b100000100000 M
b00001 N
b00000000000000000000000000000000 P
b1100000010110011 T
b1000001 V
b11111111111111111111111111111111 X
1Y
b11111111111111111111111111111111 ^
b00001 a
#720
0Y
#725
0E
b0000000000000010 G
b0000000000000011 H
1Y
#730
0Y
#735
0F
b0000000000000011 G
b0000000000000100 H
1Y
#740
0Y
#745
b0000000000000100 G
b0000000000000000 H
1Y
#750
0Y
#755
b11111111111111111111111111111111 $
1D
1E
1F
b0000000000000000 G
b0000000000000001 H
b11111111111111111111111111111111 P
b00000000000000000000000000100100 W
b11111111111111111111111111111110 X
1Y
b00000000000000000000000000100100 ]
b11111111111111111111111111111110 ^
b00000000000000000000000000101000 b
#760
0Y
#765
0D
b0000000000000001 G
b0000000000000010 H
b11111110000000001000011011100011 I
b00000000000000000001111111101100 J
b0100000000000 K
b11111111111111111111111111101100 L
b010000000000 M
b00000 O
b00000000000000000000000000000000 Q
b00000000000000000000000000000000 S
b1111111111101111 T
b0000000 V
b00000000000000000000000000010000 W
b11111111111111111111111111111111 X
1Y
b11111111111111111111111111111111 ^
b100 _
0`
b00000 a
#770
0Y
#775
0E
b0000000000000010 G
b0000000000000011 H
1Y
#780
0Y
#785
0F
b0000000000000011 G
b0000000000000100 H
1Y
#790
0Y
#795
b0000000000000100 G
b0000000000000000 H
1Y
#800
0Y
#805
1D
1E
1F
b0000000000000000 G
b0000000000000001 H
b00000000000000000000000000010100 W
1Y
b00000000000000000000000000101000 ]
b00000000000000000000000000101100 b
#810
0Y
#815
0D
b0000000000000001 G
b0000000000000010 H
b00000000100100010010001000100011 I
b00000000000000000000000000000100 J
b0010100000000 K
b00000000000000000000000000000100 L
b000100000000 M
b00010 N
b01001 O
b00000000000000000000000000000001 P
b00000000000000000000000010100010 Q
b00000000000000000000000000000100 S
b0010001010110111 T
b00000000000000000000000000101100 W
b00000000000000000000000000000101 X
1Y
b00000000000000000000000000000101 ^
b001 _
b01 c
#820
0Y
#825
0E
b0000000000000010 G
b0000000000000011 H
1Y
#830
0Y
#835
0F
b0000000000000011 G
b0000000000000100 H
1Y
#840
0Y
#845
b0000000000000100 G
b0000000000000000 H
1Y
#850
0Y
#855
1D
1E
1F
b0000000000000000 G
b0000000000000001 H
b00000000000000000000000000110000 W
1Y
b00000000000000000000000000101100 ]
b00000000000000000000000000110000 b
#860
0Y
#865
0D
b0000000000000001 G
b0000000000000010 H
b00000000010000010010010100000011 I
b00000 O
b00000000000000000000000000000000 Q
b0010010101000111 T
b1101010 V
1Y
b00000000000000000000000000000000 ^
b010 _
1`
b01010 a
b10 c
1e
#870
0Y
#875
0E
b0000000000000010 G
b0000000000000011 H
1Y
#880
0Y
#885
0F
b0000000000000011 G
b0000000000000100 H
b00000000000000000000000010100010 U
1Y
b00000000000000000000000010100010 ^
#890
0Y
#895
b0000000000000100 G
b0000000000000000 H
1Y
#900
0Y
#905
b00000000000000000000000010100010 -
1D
1E
1F
b0000000000000000 G
b0000000000000001 H
b00000000000000000000000000110100 W
1Y
b00000000000000000000000000110000 ]
b00000000000000000000000000110100 b
#910
0Y
#915
0D
b0000000000000001 G
b0000000000000010 H
b00000000000000000000000000110011 I
b00000000000000000000000000000000 J
b1000000000000 K
b00000000000000000000000000000000 L
b100000000000 M
b00000 N
b00000000000000000000000000000000 P
1R
b00000000000000000000000000000000 S
b0000000000110011 T
b1000000 V
b00000000000000000000000000110000 W
b00000000000000000000000000000000 X
1Y
b00000000000000000000000000000000 ^
b000 _
b00000 a
b00 c
0e
#920
0Y
#925
0E
b0000000000000010 G
b0000000000000011 H
1Y
#930
0Y
#935
0F
b0000000000000011 G
b0000000000000100 H
1Y
#940
0Y
#945
b0000000000000100 G
b0000000000000000 H
1Y
#950
0Y
#955
1D
1E
1F
b0000000000000000 G
b0000000000000001 H
b00000000000000000000000000110100 W
1Y
b00000000000000000000000000110100 ]
b00000000000000000000000000111000 b
#960
0Y
#965
0D
b0000000000000001 G
b0000000000000010 H
1Y
#970
0Y
#975
0E
b0000000000000010 G
b0000000000000011 H
1Y
#980
0Y
#985
0F
b0000000000000011 G
b0000000000000100 H
1Y
#990
0Y
#995
b0000000000000100 G
b0000000000000000 H
1Y
#1000
0Y
#1005
1D
1E
1F
b0000000000000000 G
b0000000000000001 H
b00000000000000000000000000111000 W
1Y
b00000000000000000000000000111000 ]
b00000000000000000000000000111100 b
#1010
0Y
#1015
0D
b0000000000000001 G
b0000000000000010 H
1Y
#1020
0Y
#1025
0E
b0000000000000010 G
b0000000000000011 H
1Y
#1030
0Y
#1035
0F
b0000000000000011 G
b0000000000000100 H
1Y
#1040
0Y
#1045
b0000000000000100 G
b0000000000000000 H
1Y
#1050
0Y
#1055
1D
1E
1F
b0000000000000000 G
b0000000000000001 H
b00000000000000000000000000111100 W
1Y
b00000000000000000000000000111100 ]
b00000000000000000000000001000000 b
#1060
0Y
#1065
0D
b0000000000000001 G
b0000000000000010 H
1Y
#1070
0Y
#1075
0E
b0000000000000010 G
b0000000000000011 H
1Y
#1080
0Y
#1085
0F
b0000000000000011 G
b0000000000000100 H
1Y
#1090
0Y
#1095
b0000000000000100 G
b0000000000000000 H
1Y
#1100
0Y
#1105
1D
1E
1F
b0000000000000000 G
b0000000000000001 H
b00000000000000000000000001000000 W
1Y
b00000000000000000000000001000000 ]
b00000000000000000000000001000100 b
#1110
0Y
#1115
0D
b0000000000000001 G
b0000000000000010 H
1Y
#1120
0Y
#1125
0E
b0000000000000010 G
b0000000000000011 H
1Y
#1130
0Y
#1135
0F
b0000000000000011 G
b0000000000000100 H
1Y
#1140
0Y
#1145
b0000000000000100 G
b0000000000000000 H
1Y
#1150
0Y
#1155
1D
1E
1F
b0000000000000000 G
b0000000000000001 H
b00000000000000000000000001000100 W
1Y
b00000000000000000000000001000100 ]
b00000000000000000000000001001000 b
#1160
0Y
#1165
0D
b0000000000000001 G
b0000000000000010 H
1Y
#1170
0Y
#1175
0E
b0000000000000010 G
b0000000000000011 H
1Y
#1180
0Y
#1185
0F
b0000000000000011 G
b0000000000000100 H
1Y
#1190
0Y
#1195
b0000000000000100 G
b0000000000000000 H
1Y
#1200
0Y
#1205
1D
1E
1F
b0000000000000000 G
b0000000000000001 H
b00000000000000000000000001001000 W
1Y
b00000000000000000000000001001000 ]
b00000000000000000000000001001100 b
#1210
0Y
#1215
0D
b0000000000000001 G
b0000000000000010 H
1Y
#1220
0Y
#1225
0E
b0000000000000010 G
b0000000000000011 H
1Y
#1230
0Y
#1235
0F
b0000000000000011 G
b0000000000000100 H
1Y
#1240
0Y
#1245
b0000000000000100 G
b0000000000000000 H
1Y
#1250
0Y
#1255
1D
1E
1F
b0000000000000000 G
b0000000000000001 H
b00000000000000000000000001001100 W
1Y
b00000000000000000000000001001100 ]
b00000000000000000000000001010000 b
#1260
0Y
#1265
0D
b0000000000000001 G
b0000000000000010 H
1Y
#1270
0Y
#1275
0E
b0000000000000010 G
b0000000000000011 H
1Y
#1280
0Y
#1285
0F
b0000000000000011 G
b0000000000000100 H
1Y
#1290
0Y
#1295
b0000000000000100 G
b0000000000000000 H
1Y
#1300
0Y
#1305
1D
1E
1F
b0000000000000000 G
b0000000000000001 H
b00000000000000000000000001010000 W
1Y
b00000000000000000000000001010000 ]
b00000000000000000000000001010100 b
#1310
0Y
#1315
0D
b0000000000000001 G
b0000000000000010 H
1Y
#1320
0Y
#1325
0E
b0000000000000010 G
b0000000000000011 H
1Y
#1330
0Y
#1335
0F
b0000000000000011 G
b0000000000000100 H
1Y
#1340
0Y
#1345
b0000000000000100 G
b0000000000000000 H
1Y
#1350
0Y
#1355
1D
1E
1F
b0000000000000000 G
b0000000000000001 H
b00000000000000000000000001010100 W
1Y
b00000000000000000000000001010100 ]
b00000000000000000000000001011000 b
#1360
0Y
#1365
0D
b0000000000000001 G
b0000000000000010 H
1Y
#1370
0Y
#1375
0E
b0000000000000010 G
b0000000000000011 H
1Y
#1380
0Y
#1385
0F
b0000000000000011 G
b0000000000000100 H
1Y
#1390
0Y
#1395
b0000000000000100 G
b0000000000000000 H
1Y
#1400
0Y
#1405
1D
1E
1F
b0000000000000000 G
b0000000000000001 H
b00000000000000000000000001011000 W
1Y
b00000000000000000000000001011000 ]
b00000000000000000000000001011100 b
#1410
0Y
#1415
0D
b0000000000000001 G
b0000000000000010 H
1Y
#1420
0Y
#1425
0E
b0000000000000010 G
b0000000000000011 H
1Y
#1430
0Y
#1435
0F
b0000000000000011 G
b0000000000000100 H
1Y
#1440
0Y
#1445
b0000000000000100 G
b0000000000000000 H
1Y
#1450
0Y
#1455
1D
1E
1F
b0000000000000000 G
b0000000000000001 H
b00000000000000000000000001011100 W
1Y
b00000000000000000000000001011100 ]
b00000000000000000000000001100000 b
#1460
0Y
#1465
0D
b0000000000000001 G
b0000000000000010 H
1Y
#1470
0Y
#1475
0E
b0000000000000010 G
b0000000000000011 H
1Y
#1480
0Y
#1485
0F
b0000000000000011 G
b0000000000000100 H
1Y
#1490
0Y
#1495
b0000000000000100 G
b0000000000000000 H
1Y
#1500
0Y
